[
    {
        "userId": "u00001",
        "username": "user1",
        "password": "$2b$10$iO0xrC3IsWA2XmC8pEso3.nYAHQUWH0R7uQkXRZ5OETjG6XzmhEjG"
    },
    {
        "userId": "u00002",
        "username": "user2",
        "password": "$2b$10$iO0xrC3IsWA2XmC8pEso3.nYAHQUWH0R7uQkXRZ5OETjG6XzmhEjG"
    },
    {
        "userId": "u00003",
        "username": "user3",
        "password": "$2b$10$iO0xrC3IsWA2XmC8pEso3.nYAHQUWH0R7uQkXRZ5OETjG6XzmhEjG"
    },
    {
        "userId": "u00004",
        "username": "user4",
        "password": "$2b$10$iO0xrC3IsWA2XmC8pEso3.nYAHQUWH0R7uQkXRZ5OETjG6XzmhEjG"
    },
    {
        "userId": "u00005",
        "username": "user5",
        "password": "$2b$10$iO0xrC3IsWA2XmC8pEso3.nYAHQUWH0R7uQkXRZ5OETjG6XzmhEjG"
    },
    {
        "userId": "u00006",
        "username": "user6",
        "password": "$2b$10$iO0xrC3IsWA2XmC8pEso3.nYAHQUWH0R7uQkXRZ5OETjG6XzmhEjG"
    },
    {
        "userId": "u00007",
        "username": "user7",
        "password": "$2b$10$iO0xrC3IsWA2XmC8pEso3.nYAHQUWH0R7uQkXRZ5OETjG6XzmhEjG"
    },
    {
        "userId": "u00008",
        "username": "user8",
        "password": "$2b$10$iO0xrC3IsWA2XmC8pEso3.nYAHQUWH0R7uQkXRZ5OETjG6XzmhEjG"
    },
    {
        "userId": "u00009",
        "username": "user9",
        "password": "$2b$10$iO0xrC3IsWA2XmC8pEso3.nYAHQUWH0R7uQkXRZ5OETjG6XzmhEjG"
    },
    {
        "userId": "u00010",
        "username": "user10",
        "password": "$2b$10$iO0xrC3IsWA2XmC8pEso3.nYAHQUWH0R7uQkXRZ5OETjG6XzmhEjG"
    },
    {
        "userId": "u00011",
        "username": "user11",
        "password": "$2b$10$iO0xrC3IsWA2XmC8pEso3.nYAHQUWH0R7uQkXRZ5OETjG6XzmhEjG"
    },
    {
        "userId": "u00012",
        "username": "user12",
        "password": "$2b$10$iO0xrC3IsWA2XmC8pEso3.nYAHQUWH0R7uQkXRZ5OETjG6XzmhEjG"
    },
    {
        "userId": "u00013",
        "username": "user13",
        "password": "$2b$10$iO0xrC3IsWA2XmC8pEso3.nYAHQUWH0R7uQkXRZ5OETjG6XzmhEjG"
    },
    {
        "userId": "u00014",
        "username": "user14",
        "password": "$2b$10$iO0xrC3IsWA2XmC8pEso3.nYAHQUWH0R7uQkXRZ5OETjG6XzmhEjG"
    },
    {
        "userId": "u00015",
        "username": "user15",
        "password": "$2b$10$iO0xrC3IsWA2XmC8pEso3.nYAHQUWH0R7uQkXRZ5OETjG6XzmhEjG"
    },
    {
        "userId": "u00016",
        "username": "user16",
        "password": "$2b$10$iO0xrC3IsWA2XmC8pEso3.nYAHQUWH0R7uQkXRZ5OETjG6XzmhEjG"
    },
    {
        "userId": "u00017",
        "username": "user17",
        "password": "$2b$10$iO0xrC3IsWA2XmC8pEso3.nYAHQUWH0R7uQkXRZ5OETjG6XzmhEjG"
    },
    {
        "userId": "u00018",
        "username": "user18",
        "password": "$2b$10$iO0xrC3IsWA2XmC8pEso3.nYAHQUWH0R7uQkXRZ5OETjG6XzmhEjG"
    },
    {
        "userId": "u00019",
        "username": "user19",
        "password": "$2b$10$iO0xrC3IsWA2XmC8pEso3.nYAHQUWH0R7uQkXRZ5OETjG6XzmhEjG"
    },
    {
        "userId": "u00020",
        "username": "user20",
        "password": "$2b$10$iO0xrC3IsWA2XmC8pEso3.nYAHQUWH0R7uQkXRZ5OETjG6XzmhEjG"
    },
    {
        "userId": "u00021",
        "username": "user21",
        "password": "$2b$10$iO0xrC3IsWA2XmC8pEso3.nYAHQUWH0R7uQkXRZ5OETjG6XzmhEjG"
    },
    {
        "userId": "u00022",
        "username": "user22",
        "password": "$2b$10$iO0xrC3IsWA2XmC8pEso3.nYAHQUWH0R7uQkXRZ5OETjG6XzmhEjG"
    },
    {
        "userId": "u00023",
        "username": "user23",
        "password": "$2b$10$iO0xrC3IsWA2XmC8pEso3.nYAHQUWH0R7uQkXRZ5OETjG6XzmhEjG"
    },
    {
        "userId": "u00024",
        "username": "user24",
        "password": "$2b$10$iO0xrC3IsWA2XmC8pEso3.nYAHQUWH0R7uQkXRZ5OETjG6XzmhEjG"
    },
    {
        "userId": "u00025",
        "username": "user25",
        "password": "$2b$10$iO0xrC3IsWA2XmC8pEso3.nYAHQUWH0R7uQkXRZ5OETjG6XzmhEjG"
    },
    {
        "userId": "u00026",
        "username": "user26",
        "password": "$2b$10$iO0xrC3IsWA2XmC8pEso3.nYAHQUWH0R7uQkXRZ5OETjG6XzmhEjG"
    },
    {
        "userId": "u00027",
        "username": "user27",
        "password": "$2b$10$iO0xrC3IsWA2XmC8pEso3.nYAHQUWH0R7uQkXRZ5OETjG6XzmhEjG"
    },
    {
        "userId": "u00028",
        "username": "user28",
        "password": "$2b$10$iO0xrC3IsWA2XmC8pEso3.nYAHQUWH0R7uQkXRZ5OETjG6XzmhEjG"
    },
    {
        "userId": "u00029",
        "username": "user29",
        "password": "$2b$10$iO0xrC3IsWA2XmC8pEso3.nYAHQUWH0R7uQkXRZ5OETjG6XzmhEjG"
    },
    {
        "userId": "u00030",
        "username": "user30",
        "password": "$2b$10$iO0xrC3IsWA2XmC8pEso3.nYAHQUWH0R7uQkXRZ5OETjG6XzmhEjG"
    },
    {
        "userId": "u00031",
        "username": "user31",
        "password": "$2b$10$iO0xrC3IsWA2XmC8pEso3.nYAHQUWH0R7uQkXRZ5OETjG6XzmhEjG"
    },
    {
        "userId": "u00032",
        "username": "user32",
        "password": "$2b$10$iO0xrC3IsWA2XmC8pEso3.nYAHQUWH0R7uQkXRZ5OETjG6XzmhEjG"
    },
    {
        "userId": "u00033",
        "username": "user33",
        "password": "$2b$10$iO0xrC3IsWA2XmC8pEso3.nYAHQUWH0R7uQkXRZ5OETjG6XzmhEjG"
    },
    {
        "userId": "u00034",
        "username": "user34",
        "password": "$2b$10$iO0xrC3IsWA2XmC8pEso3.nYAHQUWH0R7uQkXRZ5OETjG6XzmhEjG"
    },
    {
        "userId": "u00035",
        "username": "user35",
        "password": "$2b$10$iO0xrC3IsWA2XmC8pEso3.nYAHQUWH0R7uQkXRZ5OETjG6XzmhEjG"
    },
    {
        "userId": "u00036",
        "username": "user36",
        "password": "$2b$10$iO0xrC3IsWA2XmC8pEso3.nYAHQUWH0R7uQkXRZ5OETjG6XzmhEjG"
    },
    {
        "userId": "u00037",
        "username": "user37",
        "password": "$2b$10$iO0xrC3IsWA2XmC8pEso3.nYAHQUWH0R7uQkXRZ5OETjG6XzmhEjG"
    },
    {
        "userId": "u00038",
        "username": "user38",
        "password": "$2b$10$iO0xrC3IsWA2XmC8pEso3.nYAHQUWH0R7uQkXRZ5OETjG6XzmhEjG"
    },
    {
        "userId": "u00039",
        "username": "user39",
        "password": "$2b$10$iO0xrC3IsWA2XmC8pEso3.nYAHQUWH0R7uQkXRZ5OETjG6XzmhEjG"
    },
    {
        "userId": "u00040",
        "username": "user40",
        "password": "$2b$10$iO0xrC3IsWA2XmC8pEso3.nYAHQUWH0R7uQkXRZ5OETjG6XzmhEjG"
    },
    {
        "userId": "u00041",
        "username": "user41",
        "password": "$2b$10$iO0xrC3IsWA2XmC8pEso3.nYAHQUWH0R7uQkXRZ5OETjG6XzmhEjG"
    },
    {
        "userId": "u00042",
        "username": "user42",
        "password": "$2b$10$iO0xrC3IsWA2XmC8pEso3.nYAHQUWH0R7uQkXRZ5OETjG6XzmhEjG"
    },
    {
        "userId": "u00043",
        "username": "user43",
        "password": "$2b$10$iO0xrC3IsWA2XmC8pEso3.nYAHQUWH0R7uQkXRZ5OETjG6XzmhEjG"
    },
    {
        "userId": "u00044",
        "username": "user44",
        "password": "$2b$10$iO0xrC3IsWA2XmC8pEso3.nYAHQUWH0R7uQkXRZ5OETjG6XzmhEjG"
    },
    {
        "userId": "u00045",
        "username": "user45",
        "password": "$2b$10$iO0xrC3IsWA2XmC8pEso3.nYAHQUWH0R7uQkXRZ5OETjG6XzmhEjG"
    },
    {
        "userId": "u00046",
        "username": "user46",
        "password": "$2b$10$iO0xrC3IsWA2XmC8pEso3.nYAHQUWH0R7uQkXRZ5OETjG6XzmhEjG"
    },
    {
        "userId": "u00047",
        "username": "user47",
        "password": "$2b$10$iO0xrC3IsWA2XmC8pEso3.nYAHQUWH0R7uQkXRZ5OETjG6XzmhEjG"
    },
    {
        "userId": "u00048",
        "username": "user48",
        "password": "$2b$10$iO0xrC3IsWA2XmC8pEso3.nYAHQUWH0R7uQkXRZ5OETjG6XzmhEjG"
    },
    {
        "userId": "u00049",
        "username": "user49",
        "password": "$2b$10$iO0xrC3IsWA2XmC8pEso3.nYAHQUWH0R7uQkXRZ5OETjG6XzmhEjG"
    },
    {
        "userId": "u00050",
        "username": "user50",
        "password": "$2b$10$iO0xrC3IsWA2XmC8pEso3.nYAHQUWH0R7uQkXRZ5OETjG6XzmhEjG"
    },
    {
        "userId": "u00051",
        "username": "user51",
        "password": "$2b$10$iO0xrC3IsWA2XmC8pEso3.nYAHQUWH0R7uQkXRZ5OETjG6XzmhEjG"
    },
    {
        "userId": "u00052",
        "username": "user52",
        "password": "$2b$10$iO0xrC3IsWA2XmC8pEso3.nYAHQUWH0R7uQkXRZ5OETjG6XzmhEjG"
    },
    {
        "userId": "u00053",
        "username": "user53",
        "password": "$2b$10$iO0xrC3IsWA2XmC8pEso3.nYAHQUWH0R7uQkXRZ5OETjG6XzmhEjG"
    },
    {
        "userId": "u00054",
        "username": "user54",
        "password": "$2b$10$iO0xrC3IsWA2XmC8pEso3.nYAHQUWH0R7uQkXRZ5OETjG6XzmhEjG"
    },
    {
        "userId": "u00055",
        "username": "user55",
        "password": "$2b$10$iO0xrC3IsWA2XmC8pEso3.nYAHQUWH0R7uQkXRZ5OETjG6XzmhEjG"
    },
    {
        "userId": "u00056",
        "username": "user56",
        "password": "$2b$10$iO0xrC3IsWA2XmC8pEso3.nYAHQUWH0R7uQkXRZ5OETjG6XzmhEjG"
    },
    {
        "userId": "u00057",
        "username": "user57",
        "password": "$2b$10$iO0xrC3IsWA2XmC8pEso3.nYAHQUWH0R7uQkXRZ5OETjG6XzmhEjG"
    },
    {
        "userId": "u00058",
        "username": "user58",
        "password": "$2b$10$iO0xrC3IsWA2XmC8pEso3.nYAHQUWH0R7uQkXRZ5OETjG6XzmhEjG"
    },
    {
        "userId": "u00059",
        "username": "user59",
        "password": "$2b$10$iO0xrC3IsWA2XmC8pEso3.nYAHQUWH0R7uQkXRZ5OETjG6XzmhEjG"
    },
    {
        "userId": "u00060",
        "username": "user60",
        "password": "$2b$10$iO0xrC3IsWA2XmC8pEso3.nYAHQUWH0R7uQkXRZ5OETjG6XzmhEjG"
    },
    {
        "userId": "u00061",
        "username": "user61",
        "password": "$2b$10$iO0xrC3IsWA2XmC8pEso3.nYAHQUWH0R7uQkXRZ5OETjG6XzmhEjG"
    },
    {
        "userId": "u00062",
        "username": "user62",
        "password": "$2b$10$iO0xrC3IsWA2XmC8pEso3.nYAHQUWH0R7uQkXRZ5OETjG6XzmhEjG"
    },
    {
        "userId": "u00063",
        "username": "user63",
        "password": "$2b$10$iO0xrC3IsWA2XmC8pEso3.nYAHQUWH0R7uQkXRZ5OETjG6XzmhEjG"
    },
    {
        "userId": "u00064",
        "username": "user64",
        "password": "$2b$10$iO0xrC3IsWA2XmC8pEso3.nYAHQUWH0R7uQkXRZ5OETjG6XzmhEjG"
    },
    {
        "userId": "u00065",
        "username": "user65",
        "password": "$2b$10$iO0xrC3IsWA2XmC8pEso3.nYAHQUWH0R7uQkXRZ5OETjG6XzmhEjG"
    },
    {
        "userId": "u00066",
        "username": "user66",
        "password": "$2b$10$iO0xrC3IsWA2XmC8pEso3.nYAHQUWH0R7uQkXRZ5OETjG6XzmhEjG"
    },
    {
        "userId": "u00067",
        "username": "user67",
        "password": "$2b$10$iO0xrC3IsWA2XmC8pEso3.nYAHQUWH0R7uQkXRZ5OETjG6XzmhEjG"
    },
    {
        "userId": "u00068",
        "username": "user68",
        "password": "$2b$10$iO0xrC3IsWA2XmC8pEso3.nYAHQUWH0R7uQkXRZ5OETjG6XzmhEjG"
    },
    {
        "userId": "u00069",
        "username": "user69",
        "password": "$2b$10$iO0xrC3IsWA2XmC8pEso3.nYAHQUWH0R7uQkXRZ5OETjG6XzmhEjG"
    },
    {
        "userId": "u00070",
        "username": "user70",
        "password": "$2b$10$iO0xrC3IsWA2XmC8pEso3.nYAHQUWH0R7uQkXRZ5OETjG6XzmhEjG"
    },
    {
        "userId": "u00071",
        "username": "user71",
        "password": "$2b$10$iO0xrC3IsWA2XmC8pEso3.nYAHQUWH0R7uQkXRZ5OETjG6XzmhEjG"
    },
    {
        "userId": "u00072",
        "username": "user72",
        "password": "$2b$10$iO0xrC3IsWA2XmC8pEso3.nYAHQUWH0R7uQkXRZ5OETjG6XzmhEjG"
    },
    {
        "userId": "u00073",
        "username": "user73",
        "password": "$2b$10$iO0xrC3IsWA2XmC8pEso3.nYAHQUWH0R7uQkXRZ5OETjG6XzmhEjG"
    },
    {
        "userId": "u00074",
        "username": "user74",
        "password": "$2b$10$iO0xrC3IsWA2XmC8pEso3.nYAHQUWH0R7uQkXRZ5OETjG6XzmhEjG"
    },
    {
        "userId": "u00075",
        "username": "user75",
        "password": "$2b$10$iO0xrC3IsWA2XmC8pEso3.nYAHQUWH0R7uQkXRZ5OETjG6XzmhEjG"
    },
    {
        "userId": "u00076",
        "username": "user76",
        "password": "$2b$10$iO0xrC3IsWA2XmC8pEso3.nYAHQUWH0R7uQkXRZ5OETjG6XzmhEjG"
    },
    {
        "userId": "u00077",
        "username": "user77",
        "password": "$2b$10$iO0xrC3IsWA2XmC8pEso3.nYAHQUWH0R7uQkXRZ5OETjG6XzmhEjG"
    },
    {
        "userId": "u00078",
        "username": "user78",
        "password": "$2b$10$iO0xrC3IsWA2XmC8pEso3.nYAHQUWH0R7uQkXRZ5OETjG6XzmhEjG"
    },
    {
        "userId": "u00079",
        "username": "user79",
        "password": "$2b$10$iO0xrC3IsWA2XmC8pEso3.nYAHQUWH0R7uQkXRZ5OETjG6XzmhEjG"
    },
    {
        "userId": "u00080",
        "username": "user80",
        "password": "$2b$10$iO0xrC3IsWA2XmC8pEso3.nYAHQUWH0R7uQkXRZ5OETjG6XzmhEjG"
    },
    {
        "userId": "u00081",
        "username": "user81",
        "password": "$2b$10$iO0xrC3IsWA2XmC8pEso3.nYAHQUWH0R7uQkXRZ5OETjG6XzmhEjG"
    },
    {
        "userId": "u00082",
        "username": "user82",
        "password": "$2b$10$iO0xrC3IsWA2XmC8pEso3.nYAHQUWH0R7uQkXRZ5OETjG6XzmhEjG"
    },
    {
        "userId": "u00083",
        "username": "user83",
        "password": "$2b$10$iO0xrC3IsWA2XmC8pEso3.nYAHQUWH0R7uQkXRZ5OETjG6XzmhEjG"
    },
    {
        "userId": "u00084",
        "username": "user84",
        "password": "$2b$10$iO0xrC3IsWA2XmC8pEso3.nYAHQUWH0R7uQkXRZ5OETjG6XzmhEjG"
    },
    {
        "userId": "u00085",
        "username": "user85",
        "password": "$2b$10$iO0xrC3IsWA2XmC8pEso3.nYAHQUWH0R7uQkXRZ5OETjG6XzmhEjG"
    },
    {
        "userId": "u00086",
        "username": "user86",
        "password": "$2b$10$iO0xrC3IsWA2XmC8pEso3.nYAHQUWH0R7uQkXRZ5OETjG6XzmhEjG"
    },
    {
        "userId": "u00087",
        "username": "user87",
        "password": "$2b$10$iO0xrC3IsWA2XmC8pEso3.nYAHQUWH0R7uQkXRZ5OETjG6XzmhEjG"
    },
    {
        "userId": "u00088",
        "username": "user88",
        "password": "$2b$10$iO0xrC3IsWA2XmC8pEso3.nYAHQUWH0R7uQkXRZ5OETjG6XzmhEjG"
    },
    {
        "userId": "u00089",
        "username": "user89",
        "password": "$2b$10$iO0xrC3IsWA2XmC8pEso3.nYAHQUWH0R7uQkXRZ5OETjG6XzmhEjG"
    },
    {
        "userId": "u00090",
        "username": "user90",
        "password": "$2b$10$iO0xrC3IsWA2XmC8pEso3.nYAHQUWH0R7uQkXRZ5OETjG6XzmhEjG"
    },
    {
        "userId": "u00091",
        "username": "user91",
        "password": "$2b$10$.ONfDRTkrojCfIuuRufBZOot/dC5FicnlKm6WB2xDaV0.IcuGpxtS"
    },
    {
        "userId": "u00092",
        "username": "user92",
        "password": "$2b$10$p84DCe.STFvIyAeBA0yKrumhPU7P4vYvudGG59MgZdfEc/r/LiPgK"
    },
    {
        "userId": "u00093",
        "username": "user93",
        "password": "$2b$10$tj6ckPYtknV2IL.KWRZrTO.O.m8cGAuVjjRdJloep0AGoxsWHT7Em"
    },
    {
        "userId": "u00094",
        "username": "user94",
        "password": "$2b$10$sprxCqPBtAJz3RZRd1G2XuTTw650WNaYOB33LGVawR3I2nG86xm2O"
    },
    {
        "userId": "u00095",
        "username": "user95",
        "password": "$2b$10$BaVkfQBXTBlUONnD950cw.RNLxtMCbmb8YQF5wVMADvQhBMDMtf4u"
    },
    {
        "userId": "u00096",
        "username": "user96",
        "password": "$2b$10$EokRObuOnvvV1CBHs3gTBeqNjyiv8IVN0/ffp6CEangWlBhe01Ssa"
    },
    {
        "userId": "u00097",
        "username": "user97",
        "password": "$2b$10$wOs8/RGWlxQi3rBuQ/.KIOyGc5hSpwKq9XPA/EIRANVoZa4D1QM.O"
    },
    {
        "userId": "u00098",
        "username": "user99",
        "password": "$2b$10$hIOodx5oFhVHvja0cnaEZuqHpimt9KflBHqnc9MCpumBsewBXv4xS"
    }
]
